<?xml version="1.0" encoding="utf-8"?>
<!-- Generator: Adobe Illustrator 21.1.0, SVG Export Plug-In . SVG Version: 6.00 Build 0)  -->
<!DOCTYPE svg PUBLIC "-//W3C//DTD SVG 1.1//EN" "http://www.w3.org/Graphics/SVG/1.1/DTD/svg11.dtd">
<svg version="1.1" id="Layer_1" xmlns="http://www.w3.org/2000/svg" xmlns:xlink="http://www.w3.org/1999/xlink" x="0px" y="0px"
	 width="800px" height="200px" viewBox="0 0 800 200" style="enable-background:new 0 0 800 200;" xml:space="preserve">
<style type="text/css">
	.st0{fill:#1A1A1A;}
</style>
<g>
	<g>
		<g>
			<path class="st0" d="M57.7,46.2H44.1V42h51.2v4.3H81.6v105.3h13.8c17.1,1,29.7-10.6,34.3-31.6h4.4l-3.2,35.8H44.1v-4.3h13.7
				L57.7,46.2L57.7,46.2z"/>
			<path class="st0" d="M168.9,118.1v3.8c0.2,18.8,0.2,18.8,1.9,22.7c2.2,5,7.2,7.9,13.3,7.9c9.2,0,17.1-5.8,23.2-17.2l4.1,1.9
				c-7.3,13.8-17.2,20.5-30.2,20.5c-7.3,0-15.4-2.7-21.7-7.3c-9-6.8-13.8-16.2-13.8-28.2c0-20,14.9-35,34.8-35
				c17.1,0,30.9,13,30.9,28.8v2.2L168.9,118.1L168.9,118.1z M190.5,113.8V109c0-8.4-0.3-11.1-1.7-13.3c-1.5-2.7-4.6-4.1-9.2-4.1
				c-4.8,0-8,1.5-9.4,4.8c-1,2.2-1.4,5-1.4,12.6v4.8H190.5z"/>
			<path class="st0" d="M270.4,107h-4.3c-0.7-4.3-1.7-6.1-4.1-8.7c-3.9-4.1-9.7-6.7-15.4-6.7c-7.2,0-11.9,3.6-11.9,8.9
				c0,4.3,3.1,7.2,9.7,8.7c8.7,2.2,14.7,4.1,18.1,5.5c8.4,3.4,12.6,9.4,12.6,17.9c0,14.5-10.6,24.9-25.4,24.9
				c-6.3,0-11.9-1.5-16.7-4.8c-1.7-1-2.4-1.4-3.4-1.4c-1.7,0-2.6,1.5-2.6,4.4h-4.4v-24.9h4.4c0.5,5.3,1.5,8.5,4.3,12.1
				c4.3,6.1,11.6,9.9,18.9,9.9c8,0,14.3-4.6,14.3-10.4c0-2.9-1.5-5.6-4.4-7.5c-2.6-1.5-3.4-1.9-12.1-4.1c-5.6-1.5-10.9-3.2-13.7-4.4
				c-6.5-3.1-10.9-10.1-10.9-17.6c0-12.1,9.7-21.8,22-21.8c4.4,0,8.2,0.9,14,3.4c2,0.9,3.1,1.2,4.1,1.2c1.5,0,2.2-1,2.6-4.6h4.3
				L270.4,107L270.4,107z"/>
			<path class="st0" d="M465.2,144c-8,9.9-14.9,13.5-25.6,13.5c-7,0-12.5-2-15.5-6c-3.2-3.9-4.3-8.4-4.3-18.4V93h-11.4v-4.3h5.3
				c13.8,0,19.1-0.5,26.6-1.9V137c0,7,0.2,8.4,1.7,10.2c1.4,1.9,3.6,2.9,6.1,2.9c5.1,0,11.1-3.6,14.2-8.5c2.2-3.8,2.9-6.7,2.9-15V93
				h-11.4v-4.3h5.3c13.8,0,19.1-0.5,26.6-1.9v64.7H497v4.3h-31.7L465.2,144L465.2,144z"/>
			<path class="st0" d="M498.3,93v-2.7c11.4-5.5,21.3-16.7,27.1-30.7h4.6v29.2h14.2v4.3H530v47.6c0,6,1.9,8.9,5.5,8.9
				c4.6,0,6.8-2.9,8.9-11.1l4.8,0.9c-1,5-2.2,7.9-4.4,10.4c-3.8,5-10.6,7.9-18.1,7.9c-11.6,0-17.1-5.5-17.1-16.9V93H498.3z"/>
			<path class="st0" d="M565.4,93H554v-4.3h4.6c14.5,0,20-0.5,27.3-1.9v14.7c4.4-9,11.9-14.5,19.8-14.5c8,0,14,5.6,14,13.3
				c0,6.3-4.6,10.9-10.8,10.9c-5.6,0-9.9-4.1-9.9-9.7c0-2.2,0.5-3.8,2-5.8c0.3-0.3,0.5-0.7,0.5-1.2c0-0.9-0.5-1.4-1.4-1.4
				c-1.5,0-5,2.4-7,4.9c-5.3,6.5-7.3,13.1-7.3,23.6v29.9H599v4.3h-45v-4.3h11.4V93z"/>
			<path class="st0" d="M649.6,118.1v3.8c0.2,18.8,0.2,18.8,1.9,22.7c2.2,5,7.2,7.9,13.3,7.9c9.2,0,17.1-5.8,23.2-17.2l4.1,1.9
				c-7.3,13.8-17.2,20.5-30.2,20.5c-7.3,0-15.4-2.7-21.7-7.3c-9-6.8-13.8-16.2-13.8-28.2c0-20,14.9-35,34.8-35
				c17.1,0,30.9,13,30.9,28.8v2.2L649.6,118.1L649.6,118.1z M671.2,113.8V109c0-8.4-0.3-11.1-1.7-13.3c-1.5-2.7-4.6-4.1-9.2-4.1
				c-4.8,0-8,1.5-9.4,4.8c-1,2.2-1.4,5-1.4,12.6v4.8H671.2z"/>
			<path class="st0" d="M751.1,107h-4.3c-0.7-4.3-1.7-6.1-4.1-8.7c-3.9-4.1-9.7-6.7-15.4-6.7c-7.2,0-11.9,3.6-11.9,8.9
				c0,4.3,3.1,7.2,9.7,8.7c8.7,2.2,14.7,4.1,18.1,5.5c8.4,3.4,12.6,9.4,12.6,17.9c0,14.5-10.6,24.9-25.4,24.9
				c-6.3,0-11.9-1.5-16.7-4.8c-1.7-1-2.4-1.4-3.4-1.4c-1.7,0-2.6,1.5-2.6,4.4h-4.4v-24.9h4.4c0.5,5.3,1.5,8.5,4.3,12.1
				c4.3,6.1,11.6,9.9,18.9,9.9c8,0,14.3-4.6,14.3-10.4c0-2.9-1.5-5.6-4.4-7.5c-2.6-1.5-3.4-1.9-12.1-4.1c-5.6-1.5-10.9-3.2-13.7-4.4
				c-6.5-3.1-10.9-10.1-10.9-17.6c0-12.1,9.7-21.8,22-21.8c4.4,0,8.2,0.9,14,3.4c2,0.9,3.1,1.2,4.1,1.2c1.5,0,2.2-1,2.6-4.6h4.3
				L751.1,107L751.1,107z"/>
		</g>
		<g>
			<path class="st0" d="M356.8,42h4.3l43.5,111.8h10.6v4.3h-49.3v-4.3h13.7l-32.2-83.3L356.8,42z"/>
		</g>
	</g>
	<g>
		<path class="st0" d="M323.2,143.2c-2.4,8-5.5,10.6-12.6,10.6h-2.7v4.3h32.8v-4.3h-4.4c-7.9,0-9.6-0.7-9.6-3.6
			c0-0.9,0.2-1.9,0.7-3.4L348,84.5l-2.8-7.3L323.2,143.2z"/>
	</g>
</g>
</svg>
